\relax 
\providecommand\hyper@newdestlabel[2]{}
\providecommand\HyperFirstAtBeginDocument{\AtBeginDocument}
\HyperFirstAtBeginDocument{\ifx\hyper@anchor\@undefined
\global\let\oldcontentsline\contentsline
\gdef\contentsline#1#2#3#4{\oldcontentsline{#1}{#2}{#3}}
\global\let\oldnewlabel\newlabel
\gdef\newlabel#1#2{\newlabelxx{#1}#2}
\gdef\newlabelxx#1#2#3#4#5#6{\oldnewlabel{#1}{{#2}{#3}}}
\AtEndDocument{\ifx\hyper@anchor\@undefined
\let\contentsline\oldcontentsline
\let\newlabel\oldnewlabel
\fi}
\fi}
\global\let\hyper@last\relax 
\gdef\HyperFirstAtBeginDocument#1{#1}
\providecommand\HyField@AuxAddToFields[1]{}
\providecommand\HyField@AuxAddToCoFields[2]{}
\bibstyle{abbrvnat}
\citation{An2018}
\citation{Robertson1908}
\citation{Hill1910}
\@writefile{toc}{\contentsline {chapter}{\numberline {1}{\normalfont  \fontseries  {b}\selectfont  dr4pl}: A Stable Convergence Algorithm for the 4 Parameter Logistic Model}{1}{section*.1}}
\@writefile{toc}{\contentsline {section}{\numberline {2.1}Introduction}{1}{section.2.1}}
\newlabel{sec:introduction}{{2.1}{1}{Introduction}{section.2.1}{}}
\@writefile{brf}{\backcite{An2018}{{1}{2.1}{section.2.1}}}
\@writefile{toc}{\contentsline {section}{\numberline {2.2}Existing methods}{1}{section.2.2}}
\newlabel{sec:literature_review}{{2.2}{1}{Existing methods}{section.2.2}{}}
\@writefile{toc}{\contentsline {subsection}{\numberline {2.2.1}4 Parameter Logistic model}{1}{subsection.2.2.1}}
\newlabel{subsec:4PL_model}{{2.2.1}{1}{4 Parameter Logistic model}{subsection.2.2.1}{}}
\@writefile{brf}{\backcite{Robertson1908}{{1}{2.2.1}{subsection.2.2.1}}}
\newlabel{eqn:4PL_differential_eqn}{{1}{1}{4 Parameter Logistic model}{equation.2.2.1}{}}
\citation{Giraldo2002}
\citation{Bates1988}
\citation{Seber1989}
\citation{Ritz2005}
\citation{Commo2016}
\@writefile{brf}{\backcite{Hill1910}{{2}{2.2.1}{equation.2.2.1}}}
\newlabel{eqn:4PL_mean}{{2}{2}{4 Parameter Logistic model}{equation.2.2.2}{}}
\@writefile{brf}{\backcite{Giraldo2002}{{2}{2.2.1}{equation.2.2.2}}}
\@writefile{toc}{\contentsline {subsection}{\numberline {2.2.2}Motivation: convergence failure}{2}{subsection.2.2.2}}
\newlabel{subsec:motivation_convergence_failure}{{2.2.2}{2}{Motivation: convergence failure}{subsection.2.2.2}{}}
\@writefile{brf}{\backcite{Bates1988}{{2}{2.2.2}{subsection.2.2.2}}}
\@writefile{brf}{\backcite{Seber1989}{{2}{2.2.2}{subsection.2.2.2}}}
\@writefile{brf}{\backcite{Ritz2005}{{2}{2.2.2}{subsection.2.2.2}}}
\@writefile{brf}{\backcite{Commo2016}{{2}{2.2.2}{subsection.2.2.2}}}
\citation{Wang2010}
\citation{DiVeroli2015}
\citation{Lim2015}
\@writefile{lof}{\contentsline {figure}{\numberline {1}{\ignorespaces 4PL models with different values of the IC50 parameter $\theta _2$ (left plot) and the slope parameter $\theta _3$ (right plot). The other parameters are fixed at $\theta _1=100,\theta _4=0$ with $\theta _3=-1$ in the left plot and $\theta _2=1$ in the right plot. The left plot implies that $\theta _2$ controls horizontal shifts while the right plot implies that $\theta _3$ drives rates of decrease.\relax }}{3}{figure.caption.2}}
\providecommand*\caption@xref[2]{\@setref\relax\@undefined{#1}}
\newlabel{fig:4PL_different_parameters}{{1}{3}{4PL models with different values of the IC50 parameter $\theta _2$ (left plot) and the slope parameter $\theta _3$ (right plot). The other parameters are fixed at $\theta _1=100,\theta _4=0$ with $\theta _3=-1$ in the left plot and $\theta _2=1$ in the right plot. The left plot implies that $\theta _2$ controls horizontal shifts while the right plot implies that $\theta _3$ drives rates of decrease.\relax }{figure.caption.2}{}}
\@writefile{brf}{\backcite{Wang2010}{{3}{2.2.2}{figure.caption.3}}}
\@writefile{brf}{\backcite{DiVeroli2015}{{3}{2.2.2}{figure.caption.3}}}
\@writefile{brf}{\backcite{Lim2015}{{3}{2.2.2}{figure.caption.3}}}
\@writefile{toc}{\contentsline {section}{\numberline {2.3}Diagnosis of convergence failure}{3}{section.2.3}}
\newlabel{sec:solution_convergence_failure}{{2.3}{3}{Diagnosis of convergence failure}{section.2.3}{}}
\@writefile{lof}{\contentsline {figure}{\numberline {2}{\ignorespaces Data that generate numerical errors in the R packages {\normalfont  \fontseries  {b}\selectfont  drc} and {\normalfont  \fontseries  {b}\selectfont  nplr}. The $y$-axis represents responses and the $x$-axis represents doses in a $log$ 10 scale. All data sets have at least one strong outlier which are denoted by red triangles. Data in the lower row also have insufficient numbers of data points on the right sides of the dose-response curves.\relax }}{4}{figure.caption.3}}
\newlabel{fig:drc_error_cases}{{2}{4}{Data that generate numerical errors in the R packages \pkg {drc} and \pkg {nplr}. The $y$-axis represents responses and the $x$-axis represents doses in a $log$ 10 scale. All data sets have at least one strong outlier which are denoted by red triangles. Data in the lower row also have insufficient numbers of data points on the right sides of the dose-response curves.\relax }{figure.caption.3}{}}
\citation{Gadagkar2015}
\citation{Pratt1990}
\newlabel{eqn:error_function}{{3}{5}{Diagnosis of convergence failure}{equation.2.3.3}{}}
\newlabel{eqn:4PL_mean_2}{{4}{5}{Diagnosis of convergence failure}{equation.2.3.4}{}}
\@writefile{brf}{\backcite{Gadagkar2015}{{5}{2.3}{equation.2.3.4}}}
\@writefile{toc}{\contentsline {subsection}{\numberline {2.3.1}Shape of a loss function}{5}{subsection.2.3.1}}
\newlabel{eqn:y_max_min}{{5}{5}{Shape of a loss function}{equation.2.3.5}{}}
\@writefile{toc}{\contentsline {subsection}{\numberline {2.3.2}Hill bounds: safeguards on the parameter space}{5}{subsection.2.3.2}}
\newlabel{subsec:boundary_parameter}{{2.3.2}{5}{Hill bounds: safeguards on the parameter space}{subsection.2.3.2}{}}
\newlabel{eqn:Hill_eqn}{{6}{5}{Hill bounds: safeguards on the parameter space}{equation.2.3.6}{}}
\newlabel{eqn:Hill_equation_approximation}{{7}{5}{Hill bounds: safeguards on the parameter space}{equation.2.3.7}{}}
\@writefile{brf}{\backcite{Pratt1990}{{5}{2.3.2}{equation.2.3.7}}}
\@writefile{lof}{\contentsline {figure}{\numberline {3}{\ignorespaces Contour plots of data shown in Figure \ref  {fig:drc_error_cases}. The $x$-axis represents the IC50 parameter $\theta _2$ and the $y$-axis represents the slope parameter $\theta _3$. The loss functions in the upper two plots decrease as the IC50 $\theta _2$ decreases, and the loss functions in the lower two plots decrease as $\theta _2$ increases; a minimum is not achieved in the parameter space.\relax }}{6}{figure.caption.4}}
\newlabel{fig:contour_plot_error_cases}{{3}{6}{Contour plots of data shown in Figure \ref {fig:drc_error_cases}. The $x$-axis represents the IC50 parameter $\theta _2$ and the $y$-axis represents the slope parameter $\theta _3$. The loss functions in the upper two plots decrease as the IC50 $\theta _2$ decreases, and the loss functions in the lower two plots decrease as $\theta _2$ increases; a minimum is not achieved in the parameter space.\relax }{figure.caption.4}{}}
\citation{Seber1989}
\citation{Seber1989}
\citation{Seber1989}
\newlabel{eqn:Hill_equation_transformed}{{8}{7}{Hill bounds: safeguards on the parameter space}{equation.2.3.8}{}}
\newlabel{eqn:bounds_linear_model}{{9}{7}{Hill bounds: safeguards on the parameter space}{equation.2.3.9}{}}
\@writefile{brf}{\backcite{Seber1989}{{7}{2.3.2}{equation.2.3.9}}}
\newlabel{eqn:nonlinear_regression_asymptotic}{{10}{7}{Hill bounds: safeguards on the parameter space}{equation.2.3.10}{}}
\@writefile{brf}{\backcite{Seber1989}{{7}{2.3.2}{equation.2.3.10}}}
\newlabel{eqn:confidence_interval_nonlinear_regression}{{11}{7}{Hill bounds: safeguards on the parameter space}{equation.2.3.11}{}}
\newlabel{eqn:Hill_bounds}{{12}{7}{Hill bounds: safeguards on the parameter space}{equation.2.3.12}{}}
\@writefile{brf}{\backcite{Seber1989}{{7}{2.3.2}{equation.2.3.12}}}
\newlabel{thm:Hill_bound}{{2.3.1}{7}{}{thm.2.3.1}{}}
\@writefile{lof}{\contentsline {figure}{\numberline {4}{\ignorespaces Dose response models presented in Table \ref  {tab:missing_true_parms} and an example data set generated by Model 7. The left plot shows the dose response curves of the models in Table \ref  {tab:missing_true_parms}. The right plot shows data generated by Model 7 of Table \ref  {tab:missing_true_parms}.\relax }}{8}{figure.caption.5}}
\newlabel{fig:simulation_setting}{{4}{8}{Dose response models presented in Table \ref {tab:missing_true_parms} and an example data set generated by Model 7. The left plot shows the dose response curves of the models in Table \ref {tab:missing_true_parms}. The right plot shows data generated by Model 7 of Table \ref {tab:missing_true_parms}.\relax }{figure.caption.5}{}}
\@writefile{toc}{\contentsline {subsection}{\numberline {2.3.3}Analysis of the Hill bounds}{8}{subsection.2.3.3}}
\newlabel{subsec:analysis_Hill_bounds}{{2.3.3}{8}{Analysis of the Hill bounds}{subsection.2.3.3}{}}
\citation{Riazoshams2009}
\citation{Dean1951}
\citation{Motulsky2006}
\@writefile{lot}{\contentsline {table}{\numberline {1}{\ignorespaces Model numbers and its parameters used in our simulation.\relax }}{9}{table.caption.6}}
\newlabel{tab:simulation_setting}{{1}{9}{Model numbers and its parameters used in our simulation.\relax }{table.caption.6}{}}
\@writefile{lot}{\contentsline {table}{\numberline {2}{\ignorespaces Proportions of times out of 1,000 simulations that the Hill bounds miss any of the true IC50 and slope parameters. The Hill bounds contain the true parameters for most of the cases, except when data have a support problem (bottom row) and the slope is gradual (leftmost column).\relax }}{9}{table.caption.7}}
\newlabel{tab:missing_true_parms}{{2}{9}{Proportions of times out of 1,000 simulations that the Hill bounds miss any of the true IC50 and slope parameters. The Hill bounds contain the true parameters for most of the cases, except when data have a support problem (bottom row) and the slope is gradual (leftmost column).\relax }{table.caption.7}{}}
\@writefile{toc}{\contentsline {section}{\numberline {2.4}Remedy for outliers}{9}{section.2.4}}
\newlabel{sec:remedy_outliers}{{2.4}{9}{Remedy for outliers}{section.2.4}{}}
\@writefile{brf}{\backcite{Riazoshams2009}{{9}{2.4}{section.2.4}}}
\@writefile{brf}{\backcite{Dean1951}{{9}{2.4}{section.2.4}}}
\@writefile{brf}{\backcite{Motulsky2006}{{9}{2.4}{section.2.4}}}
\@writefile{toc}{\contentsline {subsection}{\numberline {2.4.1}Robust regression and outlier detection}{9}{subsection.2.4.1}}
\newlabel{subsec:robust_regression_outlier_detection}{{2.4.1}{9}{Robust regression and outlier detection}{subsection.2.4.1}{}}
\@writefile{lot}{\contentsline {table}{\numberline {3}{\ignorespaces Proportions of times out of 1,000 simulations that the Hill bounds are attained by optimization procedures. The Hill bounds do not prevent optimization processes from achieving local minima of $\mathcal  {L}$ for most of cases, except when data have support problems as shown in the bottom row.\relax }}{9}{table.caption.8}}
\newlabel{tab:hitting_Hill_bounds_Hessian}{{3}{9}{Proportions of times out of 1,000 simulations that the Hill bounds are attained by optimization procedures. The Hill bounds do not prevent optimization processes from achieving local minima of $\cL $ for most of cases, except when data have support problems as shown in the bottom row.\relax }{table.caption.8}{}}
\citation{Motulsky2006}
\citation{Benjamini2001}
\citation{Motulsky2006}
\citation{Motulsky2006}
\citation{Motulsky2006}
\citation{Huber2009}
\citation{Huber1964}
\citation{Mosteller1977}
\citation{Mosteller1977}
\@writefile{brf}{\backcite{Motulsky2006}{{10}{2.4.1}{subsection.2.4.1}}}
\@writefile{brf}{\backcite{Benjamini2001}{{10}{2.4.1}{subsection.2.4.1}}}
\@writefile{brf}{\backcite{Motulsky2006}{{10}{2.4.1}{Item.7}}}
\@writefile{brf}{\backcite{Motulsky2006}{{10}{2.4.1}{Item.7}}}
\@writefile{brf}{\backcite{Motulsky2006}{{10}{2.4.1}{Item.7}}}
\@writefile{brf}{\backcite{Huber2009}{{10}{2.4.1}{Item.7}}}
\newlabel{eqn:M_estimator}{{13}{10}{Robust regression and outlier detection}{equation.2.4.13}{}}
\@writefile{brf}{\backcite{Huber1964}{{10}{2.4.1}{equation.2.4.13}}}
\@writefile{brf}{\backcite{Mosteller1977}{{10}{2.4.1}{equation.2.4.13}}}
\@writefile{brf}{\backcite{Mosteller1977}{{10}{2.4.1}{equation.2.4.13}}}
\citation{Seber1989}
\citation{Oberhofer1982}
\citation{Motulsky2006}
\citation{Motulsky2006}
\citation{Motulsky2006}
\@writefile{lof}{\contentsline {figure}{\numberline {5}{\ignorespaces The functions $\rho $ for different M-estimators. The $x$-axis represents residual values while the $y$-axis represents the values of the function $\rho $.\relax }}{11}{figure.caption.9}}
\newlabel{fig:M_estimator}{{5}{11}{The functions $\rho $ for different M-estimators. The $x$-axis represents residual values while the $y$-axis represents the values of the function $\rho $.\relax }{figure.caption.9}{}}
\@writefile{brf}{\backcite{Seber1989}{{11}{2.4.1}{equation.2.4.13}}}
\@writefile{brf}{\backcite{Oberhofer1982}{{11}{2.4.1}{equation.2.4.13}}}
\@writefile{brf}{\backcite{Motulsky2006}{{11}{2.4.1}{figure.caption.9}}}
\@writefile{toc}{\contentsline {section}{\numberline {2.5}Remedy for the support problem}{11}{section.2.5}}
\newlabel{sec:initial_parameter}{{2.5}{11}{Remedy for the support problem}{section.2.5}{}}
\@writefile{lof}{\contentsline {figure}{\numberline {6}{\ignorespaces The dose-response curves fitted by the absolute loss function in Equation (\ref  {eqn:M_estimator}) denoted by black curves and outliers detected by the method of \citet  {Motulsky2006} denoted by red triangles. Note that the curves are reasonably estimated.\relax }}{12}{figure.caption.10}}
\@writefile{brf}{\backcite{Motulsky2006}{{12}{6}{figure.caption.10}}}
\newlabel{fig:dr4pl_robust_fit_outlier}{{6}{12}{The dose-response curves fitted by the absolute loss function in Equation (\ref {eqn:M_estimator}) denoted by black curves and outliers detected by the method of \citet {Motulsky2006} denoted by red triangles. Note that the curves are reasonably estimated.\relax }{figure.caption.10}{}}
\citation{Wang2010}
\citation{Ratkowsky1983}
\citation{Mead1970}
\@writefile{toc}{\contentsline {subsection}{\numberline {2.5.1}Logistic method combined with a grid search}{13}{subsection.2.5.1}}
\@writefile{brf}{\backcite{Wang2010}{{13}{2.5.1}{subsection.2.5.1}}}
\@writefile{toc}{\contentsline {subsection}{\numberline {2.5.2}Mead's method}{13}{subsection.2.5.2}}
\newlabel{subsec:Mead_method}{{2.5.2}{13}{Mead's method}{subsection.2.5.2}{}}
\@writefile{brf}{\backcite{Ratkowsky1983}{{13}{2.5.2}{subsection.2.5.2}}}
\@writefile{brf}{\backcite{Mead1970}{{13}{2.5.2}{subsection.2.5.2}}}
\newlabel{eqn:multiplicative_error_model}{{14}{13}{Mead's method}{equation.2.5.14}{}}
\newlabel{eqn:multiplicative_error_mean}{{15}{13}{Mead's method}{equation.2.5.15}{}}
\newlabel{eqn:weighted_least_squares}{{16}{14}{Mead's method}{equation.2.5.16}{}}
\newlabel{eqn:loss_function_Mead}{{17}{14}{Mead's method}{equation.2.5.17}{}}
\@writefile{toc}{\contentsline {subsection}{\numberline {2.5.3}Comparison of the logistic and Mead methods}{14}{subsection.2.5.3}}
\newlabel{subsec:comparison_logistic_Mead}{{2.5.3}{14}{Comparison of the logistic and Mead methods}{subsection.2.5.3}{}}
\@writefile{lot}{\contentsline {table}{\numberline {4}{\ignorespaces The numbers of times that the Mead method outperforms the logistic method in the sense that it has a lower loss value for final fitted models. The bottom row $\left (\theta _2=1\right )$ represents data with a support problem. It can be seen that the superiority of Mead's method is maximal when data have a support problem.\relax }}{15}{table.caption.11}}
\newlabel{tab:comparison_logistic_Mead}{{4}{15}{The numbers of times that the Mead method outperforms the logistic method in the sense that it has a lower loss value for final fitted models. The bottom row $\left (\theta _2=1\right )$ represents data with a support problem. It can be seen that the superiority of Mead's method is maximal when data have a support problem.\relax }{table.caption.11}{}}
\@writefile{toc}{\contentsline {section}{\numberline {2.6}Walk-through in R}{15}{section.2.6}}
\newlabel{sec:example_code}{{2.6}{15}{Walk-through in R}{section.2.6}{}}
\@writefile{toc}{\contentsline {subsection}{\numberline {2.6.1}Main R function dr4pl}{15}{subsection.2.6.1}}
\@writefile{toc}{\contentsline {subsection}{\numberline {2.6.2}Auxiliary R functions}{16}{subsection.2.6.2}}
\@writefile{lof}{\contentsline {figure}{\numberline {7}{\ignorespaces Dose-response curves fitted by {\normalfont  \fontseries  {b}\selectfont  dr4pl} with two initialization methods: the logistic (left plot) and Mead (right plot) method. It can be seen that Mead's method yields a closer fit to the right-most data point than the logistic method.\relax }}{17}{figure.caption.12}}
\newlabel{fig:dr4pl_different_initialization_sample_data_5}{{7}{17}{Dose-response curves fitted by \pkg {dr4pl} with two initialization methods: the logistic (left plot) and Mead (right plot) method. It can be seen that Mead's method yields a closer fit to the right-most data point than the logistic method.\relax }{figure.caption.12}{}}
\@writefile{toc}{\contentsline {section}{\numberline {2.7}Summary and future extension}{17}{section.2.7}}
\newlabel{sec:summary}{{2.7}{17}{Summary and future extension}{section.2.7}{}}
\citation{Lim2013}
\bibdata{an_landis_bailey_marron_dittmer}
\bibcite{Bates1988}{{1}{1988}{{Bates and Watts}}{{}}}
\bibcite{Benjamini2001}{{2}{2001}{{Benjamini and Yekutieli}}{{}}}
\bibcite{Commo2016}{{3}{2016}{{Commo and Bot}}{{}}}
\bibcite{Dean1951}{{4}{1951}{{Dean and Dixon}}{{}}}
\bibcite{DiVeroli2015}{{5}{2015}{{Di~Veroli et~al.}}{{Di~Veroli, Fornari, Goldlust, Mills, Koh, Bramhall, Richards, and Jodrell}}}
\bibcite{Gadagkar2015}{{6}{2015}{{Gadagkar and Call}}{{}}}
\bibcite{Giraldo2002}{{7}{2002}{{Giraldo et~al.}}{{Giraldo, Vivas, Vila, and Badia}}}
\@writefile{brf}{\backcite{Lim2013}{{18}{2.7}{section.2.7}}}
\@writefile{toc}{\contentsline {section}{\numberline {2.8}Appendix: proof of Theorem \ref  {thm:Hill_bound}}{18}{section.2.8}}
\newlabel{eqn:derivative_L_theta}{{18}{18}{Appendix: proof of Theorem \ref {thm:Hill_bound}}{equation.2.8.18}{}}
\newlabel{eqn:derivative_f_theta}{{19}{18}{Appendix: proof of Theorem \ref {thm:Hill_bound}}{equation.2.8.19}{}}
\newlabel{eqn:comparison_f_y}{{20}{18}{Appendix: proof of Theorem \ref {thm:Hill_bound}}{equation.2.8.20}{}}
\bibcite{Hill1910}{{8}{1910}{{Hill}}{{}}}
\bibcite{Huber1964}{{9}{1964}{{Huber}}{{}}}
\bibcite{Huber2009}{{10}{2009}{{Huber and Ronchetti}}{{}}}
\bibcite{An2018}{{11}{2018}{{Landis et~al.}}{{Landis, An, and Bailey}}}
\bibcite{Lim2015}{{12}{2015}{{Lim}}{{}}}
\bibcite{Lim2013}{{13}{2013}{{Lim et~al.}}{{Lim, Sen, and Peddada}}}
\bibcite{Mead1970}{{14}{1970}{{Mead}}{{}}}
\bibcite{Mosteller1977}{{15}{1977}{{Mosteller and Tukey}}{{}}}
\bibcite{Motulsky2006}{{16}{2006}{{Motulsky and Brown}}{{}}}
\bibcite{Oberhofer1982}{{17}{1982}{{Oberhofer}}{{}}}
\bibcite{Pratt1990}{{18}{1990}{{Pratt and Taylor}}{{}}}
\bibcite{Ratkowsky1983}{{19}{1983}{{Ratkowsky}}{{}}}
\bibcite{Riazoshams2009}{{20}{2009}{{Riazoshams et~al.}}{{Riazoshams, Habshah~Jr, and Adam}}}
\bibcite{Ritz2005}{{21}{2005}{{Ritz et~al.}}{{Ritz, Streibig, et~al.}}}
\bibcite{Robertson1908}{{22}{1908}{{Robertson}}{{}}}
\bibcite{Seber1989}{{23}{1989}{{Seber and Wild}}{{}}}
\bibcite{Wang2010}{{24}{2010}{{Wang et~al.}}{{Wang, Jadhav, Southal, Huang, and Nguyen}}}
\ttl@finishall
